43243066E0061612312015
47276889A2640512312015
78125562D1322612312015
08738304E2927212312015
73313784E2443012312015
12609104B1477412312015
14107387E3154312312015
44856454E2266712312015
02575325C2419312312015
80493908E0440012312015
21255262C2373112312015
33532305B1820312312015
98829138B2978512312015
70107020A0005412312015
12078590C1832012312015
97767141C1675412312015
98284989E2093012312015
30758611B2319612312015
45757552A0373312312015
31372122A3006512312015
53491471B0156612312015
44145471C3172612312015
86821422E2927512312015
74698490B1073012312015
86019537C2915312312015
73155999B2403912312015
88455645E3169912312015
84534223B3203812312015
50858563D0232412312015
48724780B3250712312015
73646381B0991712312015
66080176C2953712312015
57433874E2606712312015
07733645D0635012312015
74407920B2360212312015
79013922B2183312312015
72197288C1095812312015
87489221D0991512312015
99009751C1564412312015
95045780C2419512312015
20402109A1377212312015
00303179B1543812312015
88487935D1554512312015
88758301B1539812312015
33514678A0873912312015
19951095D1120912312015
66159999D0284412312015
21131488C2335812312015
56827339C0697712312015
71159505C3190712312015
39751639E2039612312015
45403112B0186612312015
17994811A3255112312015
50583348D1280412312015
77402714E1321812312015
21419323A2271812312015
21987777E2071212312015
97018234A2490712312015
15747099A1550312312015
14741878E2956912312015
30102641E3153512312015
25704248D0628012312015
25910222D3042012312015
76945965A0548812312015
66755678A2527012312015
75075336A0537912312015
14450341C2871212312015
18262758C2991412312015
54377346E1864012312015
94929553C1886712312015
05794723C0053412312015
42384043B2841812312015
84557264E3222312312015
60620326D1376712312015
58595309B2777212312015
04952586A0169612312015
01860634C2556712312015
10273001B0284812312015
02572312D1639712312015
51652520D1289612312015
20208990B1660112312015
76550601E0942912312015
07210236E0635212312015
81348740E3158612312015
77923443C2494512312015
07361262D1988612312015
28396324C1039912312015
04173066D2757612312015
59441972E0290512312015
22986694E2218612312015
12440467E0452112312015
38641168A1969112312015
48241130A1634712312015
71476522A3212112312015
95047029A0433612312015
63735496A1394312312015
08345156A2005112312015
57834927E0896212312015
56558080E3092312312015
75220237A2772212312015
05960193A1400212312015
29439618D2095812312015
44120959C3158912312015
37374693E0340012312015
40413927D2354912312015
72397799C0533912312015
31294878D1772512312015
06023040D0455412312015
02960769C0173912312015
49690236E0754712312015
90836744B2653212312015
74432440B0668312312015
27803436D1428312312015
47697146D1496212312015
69555898B0493012312015
85630348A0332112312015
53546646A1900412312015
87950552C0772312312015
46870689C0884912312015
75299729B0156212312015
30306810E2622712312015
00744448C3002012312015
68500094D2979212312015
91896371E0528512312015
36100377C1749612312015
94475496B1972512312015
88801145A0571312312015
12418316D1886812312015
54603722A1584912312015
68498234B1895712312015
20693675E1622012312015
58506902C0584912312015
89908920B1272612312015
07960162A1190112312015
53425717B0673012312015
34054189B3189412312015
64967409E1366712312015
70414413B1249112312015
56755334B2463412312015
68904006E0227512312015
41072817C0618512312015
24124431A0872812312015
30037220A1718412312015
44735499A0964412312015
11244160B1365412312015
48792268C2578712312015
33293309B1030512312015
27054427E1416012312015
61004692D0583212312015
37753631C1298812312015
03490899B1298412312015
51583687E0285112312015
41081401D2648612312015
57695736B1340112312015
65234594B0766812312015
73069933E0561312312015
80183807E1379912312015
24942037A2624412312015
31464057C2668012312015
79067856C0061712312015
03495580D0172012312015
02059263D2083512312015
56443202B1973712312015
14018275D0403912312015
34013579E1410712312015
26593352B0379112312015
40415851C0410012312015
19458009D1642712312015
91769152A1211512312015
53018516A0840612312015
00774042E0581312312015
02239591D2231512312015
17814622B2591312312015
50485269D0620112312015
83663958D2144112312015
45674823E1032412312015
02314359D1196212312015
81960016D0279812312015
32898196B0026912312015
65416829E1373412312015
19496457D2568612312015
44082321C2319912312015
21204274E1083612312015
94727071D0770012312015
04860726E2141012312015
76815926C1924112312015
76856477E0195812312015
45902274A2355712312015
82647546E0045512312015
92831042D2691112312015
10267244B1021112312015
58639711B2146212312015
87922594B1587312312015
20995261A1645212312015
00886438C2746012312015
67596732A1288512312015
75244500C0105712312015
40654015D2510812312015
61624052B1992312312015
10527235A0698312312015
28747960E1204412312015
96842096B1542012312015
83831541D0049312312015
73431825B1021112312015
92663997D3154512312015
97351182E1615712312015
65227008D2323912312015
40320256E1365212312015
07022583D2283912312015
53236841D2158112312015
85976209A0176612312015
36005094C0082712312015
87186883A0413312312015
80369446A0949412312015
19661973C0682212312015
18949203E0874712312015
03402096E1234412312015
24993639D1253312312015
77953931B2731612312015
66996559A1284412312015
78850518B2181612312015
77446694B1334012312015
73602719E1397212312015
55908011C2898512312015
62007184D1459512312015
38745505B2404912312015
33979680D0898812312015
44855088B0659412312015
45383080B0564112312015
16088285E2241312312015
99916834A0127112312015
94649755D0439412312015
91144498A2299012312015
85074118D0671712312015
95243417B3152312312015
08678819C2618512312015
86436635A1009112312015
62774132B0563612312015
27508457A2289912312015
39398658E0817112312015
63956978C1076512312015
21804855D1026312312015
63748916C2535712312015
00022043D2337612312015
21836883B1419712312015
21067013E2492812312015
30738381C2174112312015
98740893D1501812312015
80063019B1701412312015
01981856D0742012312015
38289499A1648012312015
12834299C0912212312015
31056870D0754712312015
27760279B2630112312015
05536078E1370612312015
04740384E1992412312015
93974155C0332612312015
12625827C1271312312015
39608354E1584112312015
72538346D0852612312015
62533984C1076912312015
71560240A2418412312015
17180772D0990412312015
63570579B2587712312015
84102722D0533712312015
68364763E0463412312015
43950192D0706112312015
34262773D1577512312015
16891538E3047812312015
41250574A2359912312015
79110535B0435512312015
70550770C3157812312015
78020967C2214112312015
23016204D1166112312015
51083057D3244912312015
34957499D1462812312015
77005588B1421412312015
38759063B0786912312015
00283580D2724112312015
29305626D1915312312015
91309788D0399812312015
94605005E0166212312015
53602004C1687412312015
59170748D3165612312015
25553611A0199812312015
46680149B2464112312015
07661480B0154212312015
51400056D0739812312015
02986731D0389012312015
10120345A0068412312015
87660638A1762012312015
13537286D2565712312015
59433825C1573912312015
61502908A0975112312015
76614942A2566312312015
38441765E0672612312015
27168321E0139012312015
74259113C1512212312015
66309241B1549312312015
28820827A0643612312015
36564233B1417912312015
24620201E0431712312015
99015173E0069712312015
49918763D0687912312015
09201205C2144612312015
08271211E1943712312015
26019100E0083412312015
66222282B2251912312015
38820387E1167312312015
85507292C1137412312015
65130754A1135412312015
51067431C3017412312015
78797189D2379212312015
65092564C0940412312015
06099430A2676812312015
42982347E1778912312015
24689611D0037112312015
41996026D1636112312015
99929387E1875812312015
41754648B2091112312015
65882313C2172812312015
12340458D2258612312015
34312397E0030812312015
45588376D1581212312015
02093500E0346312312015
31896136D0759412312015
84281272B1200312312015
83283316A2969512312015
40225064D0430012312015
23115321D2774912312015
12817415A3051412312015
47425780A0924112312015
42216189A3012012312015
07967611A2951812312015
79842394E2862912312015
14342758A0454012312015
68244706C2231212312015
62590056A1087312312015
13728299D2299312312015
86597835D1306512312015
47199930A3044512312015
86091635D0657812312015
12894104C1126512312015
20962012D0795512312015
44456528C1220212312015
42889558D2840512312015
67121222D2805212312015
61285459B1955312312015
13548560C1424912312015
53263969A2584312312015
05680141C2471612312015
32585577E0804712312015
30872651C1312712312015
78667087E3112412312015
90732479C3180912312015
65314159E1873412312015
89207776B0600312312015
57958337A2980712312015
69152742D1430012312015
57494596B3008012312015
45786446A2360312312015
40464100A1569912312015
33763906E0943712312015
88153063E1887712312015
48947442B3254312312015
96705504D0070612312015
75772672D2293312312015
73153291B1310412312015
51083023C2198812312015
17297857C1240112312015
06047577A1118012312015
22215097C0143412312015
24624595C1248212312015
19608514B1376912312015
33696109A1500512312015
01682019B2705512312015
63307600E1972612312015
77506751E0727312312015
11217489C1899712312015
66009594C0706012312015
43455731A0606512312015
10204669B2832112312015
98450171C2792812312015
72802051B3107912312015
37110079C1629512312015
63605152D2815212312015
19596921D3257112312015
28556767E2501512312015
52803184B0627312312015
57861902C0656812312015
37353344B2877912312015
43630398A2509512312015
22710508A1968312312015
86734219C0130912312015
92258688D2426012312015
09616896D1364812312015
40434374E2483912312015
99044597B3237712312015
19107621E0031512312015
45444840D0473212312015
40244590E0133712312015
26718936D0129912312015
60739096E2510912312015
22915772E1917912312015
95898547B1442412312015
58907131C0408312312015
98896737B2699012312015
77374685D1457812312015
58572438E1493912312015
54173988E0930412312015
34281713B1425912312015
41820700C3234312312015
94744805B2017012312015
66204296E1541012312015
57241360D2052012312015
04647538C0482212312015
34588789B2028812312015
39602445C3191212312015
40670448D0496312312015
28080177B0886312312015
57904174C0356812312015
46956353C1550812312015
49906260B0251012312015
00312720C1557412312015
14494835C0207712312015
21319113A2329812312015
43147786A3229712312015
45562069B2101012312015
32294129D2678412312015
25329118D2603612312015
40141574C2663012312015
87765570E0073412312015
35936731A2314312312015
70048365B0400112312015
61340044B0980412312015
72147516A1593112312015
61356966E1099212312015
75752937B3057712312015
71651370B0248412312015
92776583C1231612312015
74935091C1556912312015
97065934A1587412312015
80771872D1211112312015
56386464E3274512312015
34741530C1899612312015
16806269C2787912312015
16098518E1100612312015
69826819E2431612312015
74453639C3054712312015
85744225B1149212312015
19663190A0050412312015
73788530A2640712312015
90461761B1356812312015
39978452D1957112312015
82972003C3002312312015
03161742E1873212312015
12057428A2947212312015
47109023D0569812312015
45559069D0724312312015
76383703A1926712312015
97993462A0900312312015
20646434A3064212312015
94961605E2027812312015
03637665A0604012312015
48848701C0273412312015
07538450E3055412312015
63330314B2497512312015
93354145B2324212312015
17250393E2605712312015
19265099B3161812312015
06629815C1144012312015
20551293E1291012312015
53524609D2296112312015
61357901D2474412312015
80141719D2720712312015
71153244A2753012312015
32719078D1412712312015
33463811D2457412312015
35613106E2428012312015
33346837D0437812312015
22790083E0335912312015
38610147E1789812312015
18232979D2156212312015
88213610D1908612312015
98905463A0280212312015
32561510A3085312312015
94342007E2562212312015
71426644D0263312312015
74821839C1310012312015
27125343D1999712312015
13952825C0471512312015
26385165A0310812312015
25281222A2403912312015
51400474D1323612312015
06652097D1434812312015
15050044B0919312312015
22770933E0289412312015
43986344C0908612312015
31123831E1564812312015
83097370A2351312312015
83345937B0157112312015
28369685C2749412312015
61898027C0912112312015
64333747E2538312312015
17946644B2207412312015
80525907E1728912312015
67158802B2505312312015
47009276A1957812312015
57735302C0076312312015
25911840D1349712312015
79125136D0332112312015
31230604D0727912312015
12602970C0970012312015
98012567A2022012312015
01031406C2135312312015
90040521B1026012312015
41634348E1971712312015
05505107E1229912312015
73472863D1829712312015
96410004B1726212312015
43002820B1165012312015
34261734A2299612312015
47556032E3117512312015
14931297A1637212312015
49262095D0974812312015
36900284E2277612312015
90444505A2554312312015
50498370E1512212312015
81424979D0448812312015
19792397E1518112312015
12101087C0876612312015
50634762B1552712312015
65293414B2694212312015
91775197D2210912312015
59755300E3271112312015
71514918D0960712312015
14526734E1425212312015
78474947E2403712312015
49595425B2030512312015
58359910B2815412312015
59491699A2325712312015
42461368C1903212312015
15648918C0579012312015
69274755B1337112312015
22031696B0585812312015
93252861E0392912312015
84291846E0224612312015
61381098A0690512312015
32124481E3084112312015
70427658B0877212312015
10916971A2065812312015
49766422A3068212312015
09993206E0188812312015
66258406A2064612312015
87816715D1116912312015
07547259B2097912312015
18418184C1867412312015
91710384B2630412312015
10507540E2141512312015
44667199A1236912312015
23261037C0476312312015
90635408E0973612312015
26988569A1488912312015
11779499E1445212312015
62858050E1135512312015
65639863B0298412312015
88439838C0470612312015
81412459A0737412312015
83230650C1722312312015
28648484C2636512312015
71800014A1123312312015
53904762A2336812312015
57624973D1127212312015
05997821D1640912312015
01708255A0743312312015
91654502C1939012312015
71159098A3004212312015
19773794D0365012312015
67347805D1575912312015
83750594B3238212312015
07754101B1908612312015
05899832B1598412312015
38270869C2892812312015
53705599D2734112312015
94408720D0973612312015
77551773E0251512312015
91055749C1669612312015
41357453A2800212312015
36951703B2144212312015
18876551A0724312312015
94254121A1866812312015
28225385D0586412312015
35262478D1735112312015
86076064E0279812312015
75272900C2819312312015
57092948B1907212312015
61463659A1144912312015
10647681B0679012312015
45667228B2782712312015
10217258D1132512312015
71738113E3233212312015
19057460B2203212312015
59750263E1249512312015
53208818A2448612312015
67909252B0916012312015
55625388E3001412312015
93419816A0037712312015
44105679A0568812312015
39141359D0577112312015
93536325B0485312312015
29095701A3149412312015
95160521A2813012312015
70982594A1651612312015
16532163C1326412312015
69101633A2294712312015
16557581D0807112312015
29162942D1196112312015
78920300E0732312312015
99725224A0506912312015
84008715B3212712312015
01653454C0505912312015
29457272E3093712312015
70666255A1762312312015
57378427E1691812312015
74843897C0673312312015
63953465C2079912312015
98374973C2647112312015
84722925C1178812312015
32095866B0194412312015
12878301E2104712312015
21192905B2456912312015
41637831C3048312312015
07293691D1177012312015
19352075D2518212312015
59607240D2236212312015
72429669E0162012312015
93710681E1212212312015
10286080D0230912312015
76693614B2590212312015
09702890B0177012312015
29089799B0402112312015
48793317D0939612312015
74983981C0266712312015
38856525E1750912312015
93265946C0604412312015
98214019C2909012312015
10122411A3170712312015
62957471B2285712312015
25010976E0171612312015
02233666A2463912312015
77170295D1551812312015
43503339C1166012312015
32625141A0568512312015
24134047C1527512312015
86845891C0221412312015
57947258E1769212312015
28449378E1930712312015
52496569C0825212312015
94663373C0389812312015
11732264D2415012312015
29812074A0671312312015
46091722E1689112312015
24789091A3211612312015
69341397B2472012312015
29734827B2241712312015
37344622A0080712312015
61339580D2272212312015
16482607C0680012312015
90801376B3174012312015
40025475B2321712312015
63664426A1060012312015
77339687B2075512312015
44818214C1384812312015
93537925E0275012312015
63010670E2994812312015
44028161A0749512312015
90888118A1973312312015
57675885A1002412312015
29558171C0228112312015
63311463E0699312312015
30472157A2130412312015
69629423B2764612312015
67823014A0535712312015
63814060D2682412312015
91924578D1032812312015
18059888A2559912312015
67079329B0553112312015
60286926D2949612312015
76356325D1955512312015
00722714D2435512312015
57867845D0380212312015
57944687E0579212312015
63942000C0047412312015
93398562C1461112312015
40311752C0573212312015
46089339E0306012312015
87197877C1646512312015
53401275B2858712312015
35583757B1184812312015
10389927A1014012312015
41048272A3044812312015
34066838B0243112312015
64657199E2852012312015
90942352B2661112312015
10786168D0792512312015
46377928E1953912312015
39078788E0101912312015
23322370A2144912312015
97987741D0772712312015
71075559B1731412312015
12155638E2919612312015
00605445B1046512312015
70206881A3110912312015
13054006C0591212312015
44828333E1381712312015
14060394D2315612312015
08306647D2238112312015
53304302D1256712312015
37475613D1151012312015
79897053D2449212312015
70000219A2110912312015
11734349C1362212312015
51287953A2036012312015
00515552B2103412312015
89666606B0710112312015
97613571C1810912312015
86318495A1537012312015
00050889B2368012312015
08361687B2802612312015
17745587D0797912312015
73532166B0439412312015
88373402A3090312312015
00214404C1982912312015
73262672E2987312312015
09474660B0625312312015
02398350D3245912312015
93681510D0807512312015
01627609A1246812312015
24609157D1655112312015
36761256C0081012312015
31400027E0209112312015
63546275B3028612312015
93359932D2675612312015
22988789B0133712312015
72237919A0789912312015
53488504B3092512312015
31818157D3097912312015
21553145A2811112312015
39389981A2885112312015
62518800C0875512312015
47210028A2046912312015
57563320D2399112312015
22516749C2121512312015
79766191C0248412312015
51413922D3136212312015
56390243D1950612312015
39909846E0131312312015
34559538B1490812312015
55275383D1629212312015
90643579C3006712312015
02156212B0929312312015
69698817D1866212312015
38365226D3140212312015
34885740B0643412312015
61858902B2785212312015
47755047A1523812312015
65342463D1784712312015
21860381A0226512312015
26933417B1973812312015
99727268E1616012312015
82617618B2976112312015
84478183A0170612312015
44387723E1850412312015
04676775E1188612312015
14863030E2395412312015
93255967D2959112312015
09096970C1036212312015
43777998A2671812312015
24034767B3053712312015
34587828A1999312312015
00620686D0036212312015
43653181C3035312312015
47796128C1634612312015
88795387C0015412312015
66661775C0073912312015
17714982E0099012312015
22031342B3098612312015
47625811B3276212312015
77046787D0698312312015
85207564D0890912312015
05392222D1291712312015
13344172B1486112312015
66076867D2714512312015
93258494D2562812312015
38102839E0922412312015
84517857D2153112312015
40090986D0056412312015
26653921C1567812312015
91611055D2266212312015
50934163A1468712312015
74586121C3197012312015
56021628B1608712312015
65670583C1024712312015
39835296B3111312312015
75303443A2349412312015
96064291D0697712312015
59121088E0062912312015
64802597E3052512312015
21537164C1526712312015
94961067D3201012312015
43894059E0257312312015
85859170B2625812312015
77268141C2222612312015
24401876E1163512312015
37045706A3222812312015
30361184D0705912312015
32207813E2246412312015
58933257D0280212312015
30386024A2979112312015
58256766A1043312312015
92046903C3159712312015
14881525A2040212312015
98695154A2604212312015
63195407C1985512312015
18225867B0100712312015
05017599E1025412312015
08035543A0166612312015
80909686D1354012312015
99517307C3146912312015
09738216C0642512312015
67767592D2921112312015
04808935A0092512312015
61644603D1744412312015
39748115E1410512312015
66544884B0953112312015
97220398B1408812312015
28467985A3274112312015
45312671A1127112312015
99882674B1854012312015
18565232B2135412312015
90178607C1576512312015
27046536D0360112312015
55586083A1908612312015
45282475B2521012312015
77147864C3230012312015
65724868D0156012312015
75110325E1928312312015
62968423D1686812312015
34060236B0171812312015
34314997B1797012312015
22933368D2195412312015
90939280B1683912312015
73446749B0072512312015
33849191E2052112312015
95703528A2731612312015
32485466D0491912312015
66349005D3052512312015
78856543C0306712312015
76346430A2338612312015
08028977A0172412312015
92833478A0107912312015
79202895E1186412312015
97236312A2962112312015
71531634E0686512312015
85056948E3075112312015
41365125B2845512312015
64028577D2998012312015
95620743D2314212312015
57720938A1277412312015
40231082D0409612312015
08499826D2476212312015
63553288D0291012312015
85650642C2139212312015
53123973A1297912312015
11607914B0462112312015
21712775E1153812312015
78685975C1759012312015
58130330B3270412312015
91599467D1060012312015
70400134B1812412312015
05009859B0128612312015
10093878C0739012312015
96234268C1803312312015
71301254E0161312312015
66887738D2015812312015
42410633A2955612312015
04691065C0477212312015
75722805E1184712312015
74134942B0235712312015
56055401E1821112312015
84642249E0711912312015
05822682D2173112312015
84934042A0289812312015
90209265C0722612312015
04836946D3240412312015
53915920E2924512312015
47198692E1179512312015
08146897C2822312312015
98766734A2481012312015
50604185C1609912312015
90792187A1203912312015
86315550A1393312312015
30316820E1551612312015
41831536A2517812312015
69007890E2530012312015
39906665B1694512312015
77318343A3117612312015
89211181D2908112312015
95673669D1425812312015
15683476C2295612312015
25937870A2288212312015
12251987A1575512312015
75867324A0203012312015
26154150B1387612312015
96825959E1220612312015
18027111A2907312312015
49947186C1546512312015
67273118D1864312312015
09089673D2836112312015
35176503B0051012312015
72607557E1615012312015
17904317E2067812312015
35758563B0028912312015
61675609B2729012312015
09534512C1574312312015
66694166A1689512312015
19217677D2968812312015
39941908A1564812312015
42925371A1516812312015
98562002C3165112312015
92679947B2915812312015
14132727B3270412312015
49525918B2983412312015
57463822A2010912312015
88561504B0341212312015
86895454A2345312312015
60783975C0425812312015
70708648A2145012312015
87545764A2329712312015
45367732E0699112312015
95914457D0931212312015
41744384C0489112312015
34181943C2368112312015
98427555D3107412312015
44518557E0120012312015
38984100D3109412312015
